TidyTuesday (2021-11-23) Dr. Who
…
## $writers
## # A tibble: 185 x 2
##    story_number writer          
##    <chr>        <chr>           
##  1 157          Russell T Davies
##  2 158          Russell T Davies
##  3 159          Mark Gatiss     
##  4 160a         Russell T Davies
##  5 160b         Russell T Davies
##  6 161          Robert Shearman 
##  7 162          Russell T Davies
##  8 163          Paul Cornell    
##  9 164a         Steven Moffat   
## 10 164b         Steven Moffat   
## # ... with 175 more rows
## 
## $directors
## # A tibble: 172 x 2
##    story_number director   
##    <chr>        <chr>      
##  1 157          Keith Boak 
##  2 158          Euros Lyn  
##  3 159          Euros Lyn  
##  4 160a         Keith Boak 
##  5 160b         Keith Boak 
##  6 161          Joe Ahearne
##  7 162          Brian Grant
##  8 163          Joe Ahearne
##  9 164a         James Hawes
## 10 164b         James Hawes
## # ... with 162 more rows
## 
## $episodes
## # A tibble: 172 x 12
##    era     season_number serial_title story_number episode_number episode_title 
##    <chr>           <dbl> <chr>        <chr>                 <dbl> <chr>         
##  1 revived             1 <NA>         157                       1 Rose          
##  2 revived             1 <NA>         158                       2 The End of th~
##  3 revived             1 <NA>         159                       3 The Unquiet D~
##  4 revived             1 <NA>         160a                      4 Aliens of Lon~
##  5 revived             1 <NA>         160b                      5 World War Thr~
##  6 revived             1 <NA>         161                       6 Dalek         
##  7 revived             1 <NA>         162                       7 The Long Game 
##  8 revived             1 <NA>         163                       8 Father's Day  
##  9 revived             1 <NA>         164a                      9 The Empty Chi~
## 10 revived             1 <NA>         164b                     10 The Doctor Da~
## # ... with 162 more rows, and 6 more variables: type <chr>, first_aired <date>,
## #   production_code <chr>, uk_viewers <dbl>, rating <dbl>, duration <dbl>
## 
## $imdb
## # A tibble: 160 x 6
##    season ep_num air_date     rating rating_n desc                              
##     <dbl>  <dbl> <chr>         <dbl>    <dbl> <chr>                             
##  1      1      1 17 Mar. 2006    7.5     8301 When ordinary shop-worker Rose Ty~
##  2      1      2 17 Mar. 2006    7.5     7279 The Doctor takes Rose to the year~
##  3      1      3 24 Mar. 2006    7.5     6804 The Doctor has great expectations~
##  4      1      4 31 Mar. 2006    7       6543 The Doctor returns Rose to her ow~
##  5      1      5 7 Apr. 2006     7       6337 The Slitheen have infiltrated Par~
##  6      1      6 14 Apr. 2006    8.7     7211 The TARDIS is drawn to an alien m~
##  7      1      7 21 Apr. 2006    7.1     6255 In the year 200,000 the Doctor di~
##  8      1      8 28 Apr. 2006    8.4     6889 Rose asks The Doctor to take her ~
##  9      1      9 5 May 2006      9.2     8383 When a spaceship crashes in the m~
## 10      1     10 12 May 2006     9.2     7702 The gas mask zombies are on the r~
## # ... with 150 more rows
…
