Tidy Tuesday Board Games
…
wishing
double
Num wishing

Data Exploration and wrangling

Based on the data dictionary and information provided on the dataset, this appears to be a good opportunity to practice using join functions. Additionally, we will explore which columns are good candidates for exploring summary data using the group_by function. In the end, we will attempt to put together a few meaningful graphics on the data summarizing user ratings and game rankings.

Examining the raw data

First, we will use the names function to look at the information to quickly confirm the descriptions provided by the data dictionary.

ratings

# A tibble: 21,831 x 10
     num     id name          year  rank average bayes_average users_rated url  
   <dbl>  <dbl> <chr>        <dbl> <dbl>   <dbl>         <dbl>       <dbl> <chr>
 1   105  30549 Pandemic      2008   106    7.59          7.49      108975 /boa~
 2   189    822 Carcassonne   2000   190    7.42          7.31      108738 /boa~
 3   428     13 Catan         1995   429    7.14          6.97      108024 /boa~
 4    72  68448 7 Wonders     2010    73    7.74          7.63       89982 /boa~
 5   103  36218 Dominion      2008   104    7.61          7.50       81561 /boa~
 6   191   9209 Ticket to R~  2004   192    7.41          7.30       76171 /boa~
 7   100 178900 Codenames     2015   101    7.6           7.51       74419 /boa~
 8     3 167791 Terraformin~  2016     4    8.42          8.27       74216 /boa~
 9    15 173346 7 Wonders D~  2015    16    8.11          7.98       69472 /boa~
10    35  31260 Agricola      2007    36    7.93          7.81       66093 /boa~
# ... with 21,821 more rows, and 1 more variable: thumbnail <chr>

names(ratings)

 [1] "num"           "id"            "name"          "year"         
 [5] "rank"          "average"       "bayes_average" "users_rated"  
 [9] "url"           "thumbnail"    

ratings_count <- ratings %>% summarize(count = n())

details

# A tibble: 21,631 x 23
     num     id primary          description yearpublished minplayers maxplayers
   <dbl>  <dbl> <chr>            <chr>               <dbl>      <dbl>      <dbl>
 1     0  30549 Pandemic         In Pandemi~          2008          2          4
 2     1    822 Carcassonne      Carcassonn~          2000          2          5
 3     2     13 Catan            In CATAN (~          1995          3          4
 4     3  68448 7 Wonders        You are th~          2010          2          7
 5     4  36218 Dominion         &quot;You ~          2008          2          4
 6     5   9209 Ticket to Ride   With elega~          2004          2          5
 7     6 178900 Codenames        Codenames ~          2015          2          8
 8     7 167791 Terraforming Ma~ In the 240~          2016          1          5
 9     8 173346 7 Wonders Duel   In many wa~          2015          2          2
10     9  31260 Agricola         Descriptio~          2007          1          5
# ... with 21,621 more rows, and 16 more variables: playingtime <dbl>,
#   minplaytime <dbl>, maxplaytime <dbl>, minage <dbl>,
#   boardgamecategory <chr>, boardgamemechanic <chr>, boardgamefamily <chr>,
#   boardgameexpansion <chr>, boardgameimplementation <chr>,
#   boardgamedesigner <chr>, boardgameartist <chr>, boardgamepublisher <chr>,
#   owned <dbl>, trading <dbl>, wanting <dbl>, wishing <dbl>
…
details_count <- details %>% summarize(count = n())

Ratings table total entries: 21831

Details table total entries: 21631

Joining two tables

Based off the first 6 entries shown in each data table, it does appear that the id column should allow for linkage of the two tables. There are less entries in the details dataset though, so we will left join on the details dataset and drop non-matching entries.

board_games <- ratings %>% left_join(details, by = "id")
board_games

# A tibble: 21,831 x 32
   num.x     id name          year  rank average bayes_average users_rated url  
   <dbl>  <dbl> <chr>        <dbl> <dbl>   <dbl>         <dbl>       <dbl> <chr>
 1   105  30549 Pandemic      2008   106    7.59          7.49      108975 /boa~
 2   189    822 Carcassonne   2000   190    7.42          7.31      108738 /boa~
 3   428     13 Catan         1995   429    7.14          6.97      108024 /boa~
 4    72  68448 7 Wonders     2010    73    7.74          7.63       89982 /boa~
 5   103  36218 Dominion      2008   104    7.61          7.50       81561 /boa~
 6   191   9209 Ticket to R~  2004   192    7.41          7.30       76171 /boa~
 7   100 178900 Codenames     2015   101    7.6           7.51       74419 /boa~
 8     3 167791 Terraformin~  2016     4    8.42          8.27       74216 /boa~
 9    15 173346 7 Wonders D~  2015    16    8.11          7.98       69472 /boa~
10    35  31260 Agricola      2007    36    7.93          7.81       66093 /boa~
# ... with 21,821 more rows, and 23 more variables: thumbnail <chr>,
#   num.y <dbl>, primary <chr>, description <chr>, yearpublished <dbl>,
#   minplayers <dbl>, maxplayers <dbl>, playingtime <dbl>, minplaytime <dbl>,
#   maxplaytime <dbl>, minage <dbl>, boardgamecategory <chr>,
#   boardgamemechanic <chr>, boardgamefamily <chr>, boardgameexpansion <chr>,
#   boardgameimplementation <chr>, boardgamedesigner <chr>,
#   boardgameartist <chr>, boardgamepublisher <chr>, owned <dbl>, ...

We can see based off the total number of entries in the new table board_games that we were successful in our left_join

Checking for unique entries

Next, we will see if each game (primary) has a unique entry in the data set.

board_games %>%
  group_by(primary) %>%
  summarize(
    n = n()) %>%
  arrange(desc(n))

# A tibble: 21,237 x 2
   primary                         n
   <chr>                       <int>
 1 <NA>                          200
 2 Robin Hood                      6
 3 Chaos                           4
 4 Cosmic Encounter                4
 5 Gangster                        4
 6 Gettysburg                      4
 7 Saga                            4
 8 Warhammer 40,000: Kill Team     4
 9 Airlines                        3
10 Ali Baba                        3
# ... with 21,227 more rows

It can be seen that there are multiple entries per game. Based off the data set information, it may be that the same game with different publication dates maintain separate entries. We will modify the original summary to check:

board_games %>%
  group_by(primary, yearpublished) %>%
  summarize(
    n = n(), .groups = 'drop') %>%
  arrange(desc(n))

# A tibble: 21,627 x 3
   primary                                                   yearpublished     n
   <chr>                                                             <dbl> <int>
 1  <NA>                                                                NA   200
 2 "Cahoots"                                                          2018     2
 3 "Chaos"                                                            2010     2
 4 "Columbus"                                                         1991     2
 5 "DIG"                                                              2017     2
 6 "Loch Ness"                                                        2010     2
 7 "'65: Squad-Level Combat in the Jungles of Vietnam"                2016     1
 8 "'CA' Tactical Naval Warfare in the Pacific, 1941-45"              1973     1
 9 "'Wacht am Rhein': The Battle of the Bulge, 16 Dec 44  ~          1977     1
10 "\"La Garde recule!\""                                             2011     1
# ... with 21,617 more rows
…
