Tidy Tuesday Freedom Dataset
…
Data Loading

#freedom <- readr::read_csv('https://raw.githubusercontent.com/rfordatascience/tidytuesday/master/data/2022/2022-02-22/freedom.csv')

freedom <- tt_load("2022-02-22")$freedom %>% 
  janitor::clean_names() %>%
  rename(civil_liberties = cl, 
         political_rights = pr) %>%
  mutate(country_code = countrycode(country, origin = "country.name", destination = "iso2c"))

    Downloading file 1 of 1: `freedom.csv`

freedom

# A tibble: 4,979 x 9
   country  year civil_liberties political_rights status region_code region_name
   <chr>   <dbl>           <dbl>            <dbl> <chr>        <dbl> <chr>      
 1 Afghan~  1995               7                7 NF             142 Asia       
 2 Afghan~  1996               7                7 NF             142 Asia       
 3 Afghan~  1997               7                7 NF             142 Asia       
 4 Afghan~  1998               7                7 NF             142 Asia       
 5 Afghan~  1999               7                7 NF             142 Asia       
 6 Afghan~  2000               7                7 NF             142 Asia       
 7 Afghan~  2001               7                7 NF             142 Asia       
 8 Afghan~  2002               6                6 NF             142 Asia       
 9 Afghan~  2003               6                6 NF             142 Asia       
10 Afghan~  2004               6                5 NF             142 Asia       
# ... with 4,969 more rows, and 2 more variables: is_ldc <dbl>,
#   country_code <chr>
…
 civil_liberties political_rights     is_ldc      
 Min.   :1.000   Min.   :1.000    Min.   :0.0000  
 1st Qu.:2.000   1st Qu.:1.000    1st Qu.:0.0000  
 Median :3.000   Median :3.000    Median :0.0000  
 Mean   :3.369   Mean   :3.411    Mean   :0.2362  
 3rd Qu.:5.000   3rd Qu.:6.000    3rd Qu.:0.0000  
 Max.   :7.000   Max.   :7.000    Max.   :1.0000  

freedom %>%
  count(country) %>%
  arrange(n)

# A tibble: 193 x 2
   country                 n
   <chr>               <int>
 1 South Sudan            10
 2 Montenegro             15
 3 Serbia                 18
 4 Timor-Leste            22
 5 Afghanistan            26
 6 Albania                26
 7 Algeria                26
 8 Andorra                26
 9 Angola                 26
10 Antigua and Barbuda    26
# ... with 183 more rows
…
How do we find the biggest outliers?

freedom_join_gathered 

# A tibble: 9,906 x 22
   country      year status region_code region_name is_ldc country_code ldc  
   <chr>       <dbl> <chr>        <dbl> <chr>        <dbl> <chr>        <chr>
 1 Afghanistan  1995 NF             142 Asia             1 AF           Yes  
 2 Afghanistan  1996 NF             142 Asia             1 AF           Yes  
 3 Afghanistan  1997 NF             142 Asia             1 AF           Yes  
 4 Afghanistan  1998 NF             142 Asia             1 AF           Yes  
 5 Afghanistan  1999 NF             142 Asia             1 AF           Yes  
 6 Afghanistan  2000 NF             142 Asia             1 AF           Yes  
 7 Afghanistan  2001 NF             142 Asia             1 AF           Yes  
 8 Afghanistan  2002 NF             142 Asia             1 AF           Yes  
 9 Afghanistan  2003 NF             142 Asia             1 AF           Yes  
10 Afghanistan  2004 NF             142 Asia             1 AF           Yes  
# ... with 9,896 more rows, and 14 more variables: freedom_index <dbl>,
#   country_wdi <chr>, NY.GDP.PCAP.CD <dbl>, status_wdi <chr>,
#   lastupdated <chr>, iso3c <chr>, region <chr>, capital <chr>,
#   longitude <chr>, latitude <chr>, income <fct>, lending <chr>, metric <chr>,
#   value <dbl>
…
